\contentsline {title}{Microservices - Die Revolution in der Anwendungsentwicklung?}{II}
\authcount {1}
\contentsline {author}{Soenke Huster\unskip {}}{II}
\contentsline {section}{\numberline {1}Fixed-Period Problems: The Sublinear Case}{II}
\contentsline {subsection}{\numberline {1.1}Autonomous Systems}{II}
\contentsline {subsubsection}{The General Case: Nontriviality.}{II}
