\relax 
\catcode `"\active 
\bibstyle{splncs03}
\citation{googletrendsmicroservices}
\citation{montesimicroservices}
\citation{schulte1996service}
\citation{stephens2015beginning}
\select@language{ngerman}
\@writefile{toc}{\select@language{ngerman}}
\@writefile{lof}{\select@language{ngerman}}
\@writefile{lot}{\select@language{ngerman}}
\@writefile{toc}{\contentsline {title}{Microservices - Die Revolution in der Anwendungsentwicklung?}{1}}
\@writefile{toc}{\authcount {1}}
\@writefile{toc}{\contentsline {author}{S\IeC {\"o}nke Huster}{1}}
\@writefile{toc}{\contentsline {section}{\numberline {1}Einf\IeC {\"u}hrung}{1}}
\@writefile{toc}{\contentsline {section}{\numberline {2}Historie}{1}}
\@writefile{toc}{\contentsline {subsection}{\numberline {2.1}Monolithische Architektur}{1}}
\citation{hasselbring2002component}
\citation{mackenzie2006reference}
\citation{dragoni2016microservices}
\citation{fowler2014microservices}
\citation{dragoni2016microservices}
\@writefile{toc}{\contentsline {subsection}{\numberline {2.2}Komponentenbasierte Entwicklung}{2}}
\@writefile{toc}{\contentsline {subsection}{\numberline {2.3}Serviceorientierte Architektur}{2}}
\citation{fowler2014microservices}
\citation{dragoni2016microservices}
\citation{Kautz:1994:BDS:176789.176805}
\@writefile{toc}{\contentsline {section}{\numberline {3}Microservices}{3}}
\@writefile{toc}{\contentsline {subsection}{\numberline {3.1}Definition Microservices}{3}}
\@writefile{toc}{\contentsline {subsection}{\numberline {3.2}Microservices-Architektur}{3}}
\@writefile{lof}{\contentsline {figure}{\numberline {1}{\ignorespaces Microservices mit dezentraler Datenhaltung in einer Microservice-Architektur}}{3}}
\citation{fowler2014microservices}
\citation{gray2006conversation}
\citation{caron:hal-00668713}
\citation{netflixservices2013}
\citation{rhubart2015microservices}
\citation{dragoni2016microservices}
\citation{reese2011awsoutage}
\@writefile{toc}{\contentsline {subsection}{\numberline {3.3}Vor- \& Nachteile}{4}}
\citation{sun2015security}
\citation{dragoni2016microservices}
\citation{cockroft2013cloudarchitecture}
\citation{cockroft2013cloudarchitecture}
\@writefile{toc}{\contentsline {subsection}{\numberline {3.4}Anwendungsbeispiele}{5}}
\@writefile{toc}{\contentsline {subsubsection}{Netflix}{5}}
\@writefile{lof}{\contentsline {figure}{\numberline {2}{\ignorespaces \IeC {\"U}bersicht der einzelnen Microservices mit Verbindungen untereinander in Netflix' MSA \cite  {cockroft2013cloudarchitecture}.}}{5}}
\citation{toth2015netflixarchitektur}
\citation{dockerdocs}
\citation{turnbull2014docker}
\@writefile{toc}{\contentsline {section}{\numberline {4}Frameworks}{6}}
\@writefile{toc}{\contentsline {subsubsection}{Docker}{6}}
\@writefile{lof}{\contentsline {figure}{\numberline {3}{\ignorespaces Ein Beispiel}}{6}}
\citation{urra2016distributed}
\citation{landwehrhystrix}
\@writefile{toc}{\contentsline {subsubsection}{Hystrix}{7}}
\@writefile{toc}{\contentsline {section}{\numberline {5}Fazit}{7}}
\bibdata{sources}
\bibcite{dockerdocs}{1}
\bibcite{caron:hal-00668713}{2}
\bibcite{cockroft2013cloudarchitecture}{3}
\bibcite{dragoni2016microservices}{4}
\bibcite{fowler2014microservices}{5}
\bibcite{googletrendsmicroservices}{6}
\bibcite{gray2006conversation}{7}
\bibcite{hasselbring2002component}{8}
\bibcite{Kautz:1994:BDS:176789.176805}{9}
\bibcite{landwehrhystrix}{10}
\bibcite{mackenzie2006reference}{11}
\bibcite{montesimicroservices}{12}
\bibcite{reese2011awsoutage}{13}
\bibcite{rhubart2015microservices}{14}
\bibcite{schulte1996service}{15}
\bibcite{stephens2015beginning}{16}
\bibcite{sun2015security}{17}
\bibcite{toth2015netflixarchitektur}{18}
\bibcite{turnbull2014docker}{19}
\bibcite{urra2016distributed}{20}
\bibcite{netflixservices2013}{21}
