PWD /home/soenke/ownCloud/Dokumente/Studium/WS1617/Microservices
INPUT /usr/share/texmf-dist/web2c/texmf.cnf
INPUT /var/lib/texmf/web2c/pdftex/pdflatex.fmt
INPUT microservices_neu-gg.tex
OUTPUT microservices_neu-gg.log
INPUT llncs.cls
INPUT llncs.cls
INPUT /usr/share/texmf-dist/tex/latex/base/article.cls
INPUT /usr/share/texmf-dist/tex/latex/base/article.cls
INPUT /usr/share/texmf-dist/tex/latex/base/size10.clo
INPUT /usr/share/texmf-dist/tex/latex/base/size10.clo
INPUT /usr/share/texmf-dist/tex/latex/tools/multicol.sty
INPUT /usr/share/texmf-dist/tex/latex/tools/multicol.sty
INPUT aliascnt.sty
INPUT aliascnt.sty
INPUT remreset.sty
INPUT remreset.sty
INPUT /usr/share/texmf-dist/tex/latex/base/makeidx.sty
INPUT /usr/share/texmf-dist/tex/latex/base/makeidx.sty
INPUT /usr/share/texmf-dist/tex/latex/base/inputenc.sty
INPUT /usr/share/texmf-dist/tex/latex/base/inputenc.sty
INPUT /usr/share/texmf-dist/tex/latex/base/utf8.def
INPUT /usr/share/texmf-dist/tex/latex/base/utf8.def
INPUT /usr/share/texmf-dist/tex/latex/base/t1enc.dfu
INPUT /usr/share/texmf-dist/tex/latex/base/t1enc.dfu
INPUT /usr/share/texmf-dist/tex/latex/base/ot1enc.dfu
INPUT /usr/share/texmf-dist/tex/latex/base/ot1enc.dfu
INPUT /usr/share/texmf-dist/tex/latex/base/omsenc.dfu
INPUT /usr/share/texmf-dist/tex/latex/base/omsenc.dfu
INPUT /usr/share/texmf-dist/tex/generic/babel/babel.sty
INPUT /usr/share/texmf-dist/tex/generic/babel/babel.sty
INPUT /usr/share/texmf-dist/tex/generic/babel-german/ngerman.ldf
INPUT /usr/share/texmf-dist/tex/generic/babel-german/ngerman.ldf
INPUT /usr/share/texmf-dist/tex/generic/babel-german/ngermanb.ldf
INPUT /usr/share/texmf-dist/tex/generic/babel/babel.def
INPUT /usr/share/texmf-dist/tex/latex/microtype/microtype.sty
INPUT /usr/share/texmf-dist/tex/latex/microtype/microtype.sty
INPUT /usr/share/texmf-dist/tex/latex/graphics/keyval.sty
INPUT /usr/share/texmf-dist/tex/latex/graphics/keyval.sty
INPUT /usr/share/texmf-dist/tex/latex/microtype/microtype-pdftex.def
INPUT /usr/share/texmf-dist/tex/latex/microtype/microtype-pdftex.def
INPUT /usr/share/texmf-dist/tex/latex/microtype/microtype.cfg
INPUT /usr/share/texmf-dist/tex/latex/microtype/microtype.cfg
INPUT /usr/share/texmf-dist/tex/latex/microtype/microtype.cfg
INPUT /usr/share/texmf-dist/tex/latex/babelbib/babelbib.sty
INPUT /usr/share/texmf-dist/tex/latex/babelbib/babelbib.sty
INPUT /usr/share/texmf-dist/tex/latex/graphics/graphicx.sty
INPUT /usr/share/texmf-dist/tex/latex/graphics/graphicx.sty
INPUT /usr/share/texmf-dist/tex/latex/graphics/graphics.sty
INPUT /usr/share/texmf-dist/tex/latex/graphics/graphics.sty
INPUT /usr/share/texmf-dist/tex/latex/graphics/trig.sty
INPUT /usr/share/texmf-dist/tex/latex/graphics/trig.sty
INPUT /usr/share/texmf-dist/tex/latex/graphics-cfg/graphics.cfg
INPUT /usr/share/texmf-dist/tex/latex/graphics-cfg/graphics.cfg
INPUT /usr/share/texmf-dist/tex/latex/graphics-def/pdftex.def
INPUT /usr/share/texmf-dist/tex/latex/graphics-def/pdftex.def
INPUT /usr/share/texmf-dist/tex/generic/oberdiek/infwarerr.sty
INPUT /usr/share/texmf-dist/tex/generic/oberdiek/infwarerr.sty
INPUT /usr/share/texmf-dist/tex/generic/oberdiek/ltxcmds.sty
INPUT /usr/share/texmf-dist/tex/generic/oberdiek/ltxcmds.sty
INPUT /usr/share/texmf-dist/tex/latex/url/url.sty
INPUT /usr/share/texmf-dist/tex/latex/url/url.sty
INPUT /usr/share/texmf-dist/tex/latex/listings/listings.sty
INPUT /usr/share/texmf-dist/tex/latex/listings/listings.sty
INPUT /usr/share/texmf-dist/tex/latex/listings/lstmisc.sty
INPUT /usr/share/texmf-dist/tex/latex/listings/lstmisc.sty
INPUT /usr/share/texmf-dist/tex/latex/listings/listings.cfg
INPUT /usr/share/texmf-dist/tex/latex/listings/listings.cfg
INPUT /usr/share/texmf-dist/tex/latex/graphics/color.sty
INPUT /usr/share/texmf-dist/tex/latex/graphics/color.sty
INPUT /usr/share/texmf-dist/tex/latex/graphics-cfg/color.cfg
INPUT /usr/share/texmf-dist/tex/latex/graphics-cfg/color.cfg
INPUT microservices_neu-gg.aux
INPUT microservices_neu-gg.aux
OUTPUT microservices_neu-gg.aux
INPUT /usr/share/texmf-dist/tex/latex/microtype/mt-cmr.cfg
INPUT /usr/share/texmf-dist/tex/latex/microtype/mt-cmr.cfg
INPUT /usr/share/texmf-dist/tex/latex/babelbib/german.bdf
INPUT /usr/share/texmf-dist/tex/latex/babelbib/german.bdf
INPUT /usr/share/texmf-dist/tex/context/base/mkii/supp-pdf.mkii
INPUT /usr/share/texmf-dist/tex/context/base/mkii/supp-pdf.mkii
INPUT /usr/share/texmf-dist/tex/generic/oberdiek/pdftexcmds.sty
INPUT /usr/share/texmf-dist/tex/generic/oberdiek/pdftexcmds.sty
INPUT /usr/share/texmf-dist/tex/generic/oberdiek/ifluatex.sty
INPUT /usr/share/texmf-dist/tex/generic/oberdiek/ifluatex.sty
INPUT /usr/share/texmf-dist/tex/generic/oberdiek/ifpdf.sty
INPUT /usr/share/texmf-dist/tex/generic/oberdiek/ifpdf.sty
INPUT /usr/share/texmf-dist/tex/latex/oberdiek/epstopdf-base.sty
INPUT /usr/share/texmf-dist/tex/latex/oberdiek/epstopdf-base.sty
INPUT /usr/share/texmf-dist/tex/latex/oberdiek/grfext.sty
INPUT /usr/share/texmf-dist/tex/latex/oberdiek/grfext.sty
INPUT /usr/share/texmf-dist/tex/generic/oberdiek/kvdefinekeys.sty
INPUT /usr/share/texmf-dist/tex/generic/oberdiek/kvdefinekeys.sty
INPUT /usr/share/texmf-dist/tex/latex/oberdiek/kvoptions.sty
INPUT /usr/share/texmf-dist/tex/latex/oberdiek/kvoptions.sty
INPUT /usr/share/texmf-dist/tex/generic/oberdiek/kvsetkeys.sty
INPUT /usr/share/texmf-dist/tex/generic/oberdiek/kvsetkeys.sty
INPUT /usr/share/texmf-dist/tex/generic/oberdiek/etexcmds.sty
INPUT /usr/share/texmf-dist/tex/generic/oberdiek/etexcmds.sty
INPUT /usr/share/texmf-dist/tex/latex/latexconfig/epstopdf-sys.cfg
INPUT /usr/share/texmf-dist/tex/latex/latexconfig/epstopdf-sys.cfg
INPUT /usr/share/texmf-dist/fonts/map/fontname/texfonts.map
INPUT /usr/share/texmf-dist/fonts/tfm/public/cm/cmr12.tfm
INPUT /usr/share/texmf-dist/fonts/tfm/public/cm/cmbx12.tfm
INPUT /usr/share/texmf-dist/fonts/tfm/public/cm/cmr9.tfm
INPUT /usr/share/texmf-dist/fonts/tfm/public/cm/cmtt9.tfm
INPUT /usr/share/texmf-dist/fonts/tfm/public/cm/cmbx9.tfm
INPUT /usr/share/texmf-dist/fonts/tfm/public/cm/cmr12.tfm
INPUT /usr/share/texmf-dist/fonts/tfm/public/cm/cmbx12.tfm
INPUT /usr/share/texmf-dist/fonts/tfm/public/cm/cmti10.tfm
INPUT /usr/share/texmf-dist/fonts/tfm/public/cm/cmbx10.tfm
OUTPUT microservices_neu-gg.pdf
INPUT /var/lib/texmf/fonts/map/pdftex/updmap/pdftex.map
INPUT /usr/share/texmf-dist/fonts/tfm/public/cm/cmcsc10.tfm
INPUT abbildungen/distributed-ms-architecture.png
INPUT ./abbildungen/distributed-ms-architecture.png
INPUT ./abbildungen/distributed-ms-architecture.png
INPUT abbildungen/netflix_microservices.png
INPUT ./abbildungen/netflix_microservices.png
INPUT ./abbildungen/netflix_microservices.png
INPUT /usr/share/texmf-dist/fonts/tfm/public/cm/cmr6.tfm
INPUT /usr/share/texmf-dist/fonts/tfm/public/cm/cmmi9.tfm
INPUT /usr/share/texmf-dist/fonts/tfm/public/cm/cmmi6.tfm
INPUT /usr/share/texmf-dist/fonts/tfm/public/cm/cmsy9.tfm
INPUT /usr/share/texmf-dist/fonts/tfm/public/cm/cmsy6.tfm
INPUT /usr/share/texmf-dist/fonts/tfm/public/cm/cmti9.tfm
INPUT microservices_neu-gg.bbl
INPUT microservices_neu-gg.bbl
INPUT microservices_neu-gg.aux
INPUT /usr/share/texmf-dist/fonts/type1/public/amsfonts/cm/cmbx10.pfb
INPUT /usr/share/texmf-dist/fonts/type1/public/amsfonts/cm/cmbx12.pfb
INPUT /usr/share/texmf-dist/fonts/type1/public/amsfonts/cm/cmbx9.pfb
INPUT /usr/share/texmf-dist/fonts/type1/public/amsfonts/cm/cmcsc10.pfb
INPUT /usr/share/texmf-dist/fonts/type1/public/amsfonts/cm/cmr10.pfb
INPUT /usr/share/texmf-dist/fonts/type1/public/amsfonts/cm/cmr6.pfb
INPUT /usr/share/texmf-dist/fonts/type1/public/amsfonts/cm/cmr7.pfb
INPUT /usr/share/texmf-dist/fonts/type1/public/amsfonts/cm/cmr9.pfb
INPUT /usr/share/texmf-dist/fonts/type1/public/amsfonts/cm/cmti10.pfb
INPUT /usr/share/texmf-dist/fonts/type1/public/amsfonts/cm/cmti9.pfb
INPUT /usr/share/texmf-dist/fonts/type1/public/amsfonts/cm/cmtt9.pfb
