This is BibTeX, Version 0.99d (TeX Live 2016/Arch Linux)
Capacity: max_strings=35307, hash_size=35307, hash_prime=30011
The top-level auxiliary file: microservices.aux
The style file: splncs03.bst
Database file #1: sources.bib
Repeated entry---line 152 of file sources.bib
 : @misc{reese2011awsoutage
 :                         ,
I'm skipping whatever remains of this entry
Warning--empty journal in montesimicroservices
Warning--empty journal in netflixservices2013
Warning--missing publisher in wolff2015microservices
You've used 24 entries,
            2785 wiz_defined-function locations,
            718 strings with 8378 characters,
and the built_in function-call counts, 10401 in all, are:
= -- 835
> -- 288
< -- 14
+ -- 123
- -- 96
* -- 626
:= -- 1396
add.period$ -- 21
call.type$ -- 24
change.case$ -- 123
chr.to.int$ -- 0
cite$ -- 27
duplicate$ -- 959
empty$ -- 980
format.name$ -- 107
if$ -- 2234
int.to.chr$ -- 0
int.to.str$ -- 24
missing$ -- 191
newline$ -- 77
num.names$ -- 48
pop$ -- 358
preamble$ -- 1
purify$ -- 96
quote$ -- 0
skip$ -- 269
stack$ -- 0
substring$ -- 551
swap$ -- 481
text.length$ -- 14
text.prefix$ -- 0
top$ -- 0
type$ -- 92
warning$ -- 3
while$ -- 90
width$ -- 26
write$ -- 227
(There was 1 error message)
