\relax 
\catcode `"\active 
\bibstyle{splncs03}
\citation{googletrendsmicroservices}
\citation{balalaie2015migrating}
\citation{abrams2010emergent}
\citation{montesimicroservices}
\citation{schulte1996service}
\citation{fowler2014microservices}
\citation{dragoni2016microservices}
\citation{stephens2015beginning}
\select@language{ngerman}
\@writefile{toc}{\select@language{ngerman}}
\@writefile{lof}{\select@language{ngerman}}
\@writefile{lot}{\select@language{ngerman}}
\@writefile{toc}{\contentsline {title}{Microservices - Die Revolution in der Anwendungsentwicklung?}{1}}
\@writefile{toc}{\authcount {1}}
\@writefile{toc}{\contentsline {author}{Soenke Huster}{1}}
\@writefile{toc}{\contentsline {section}{\numberline {1}Einf\IeC {\"u}hrung}{1}}
\@writefile{toc}{\contentsline {section}{\numberline {2}Definition}{1}}
\citation{fowler2014microservices}
\citation{dragoni2016microservices}
\citation{fowler2014microservices}
\citation{Kautz:1994:BDS:176789.176805}
\citation{gray2006conversation}
\@writefile{toc}{\contentsline {subsection}{\numberline {2.1}Abgrenzung Monolithische Architektur}{2}}
\@writefile{toc}{\contentsline {subsection}{\numberline {2.2}Definition Microservices}{2}}
\citation{dragoni2016microservices}
\citation{reese2011awsoutage}
\@writefile{lof}{\contentsline {figure}{\numberline {1}{\ignorespaces Microservices mit dezentraler Datenhaltung in einer Microservice-Architektur}}{3}}
\@writefile{toc}{\contentsline {subsection}{\numberline {2.3}Vor- \& Nachteile}{3}}
\citation{mackenzie2006reference}
\citation{wolff2015microservices}
\citation{netflixservices2013}
\citation{rhubart2015microservices}
\citation{7436659}
\citation{hasselbring2002component}
\citation{schroeder2014microservice}
\citation{izrailevsky2016completingnetflix}
\@writefile{toc}{\contentsline {section}{\numberline {3}Microservices und Serviceorientierte Architektur}{4}}
\@writefile{toc}{\contentsline {subsection}{\numberline {3.1}Vergleich zur Komponentenbasierte Entwicklung}{4}}
\@writefile{toc}{\contentsline {section}{\numberline {4}Beispiele}{4}}
\@writefile{toc}{\contentsline {subsection}{\numberline {4.1}Anwendung}{4}}
\@writefile{toc}{\contentsline {subsubsection}{Netflix}{4}}
\citation{cockroft2013cloudarchitecture}
\citation{cockroft2013cloudarchitecture}
\citation{toth2015netflixarchitektur}
\@writefile{lof}{\contentsline {figure}{\numberline {2}{\ignorespaces \IeC {\"U}bersicht der einzelnen Microservices mit Verbindungen untereinander in Netflix' MSA \cite  {cockroft2013cloudarchitecture}}}{5}}
\citation{montesi2016circuit}
\citation{netflixhystrixgithub}
\citation{landwehrhystrix}
\@writefile{toc}{\contentsline {subsection}{\numberline {4.2}Frameworks}{6}}
\@writefile{toc}{\contentsline {subsubsection}{Eureka}{6}}
\@writefile{toc}{\contentsline {subsubsection}{Hysterix}{6}}
\bibdata{sources}
\bibcite{abrams2010emergent}{1}
\bibcite{7436659}{2}
\bibcite{balalaie2015migrating}{3}
\bibcite{cockroft2013cloudarchitecture}{4}
\bibcite{dragoni2016microservices}{5}
\bibcite{fowler2014microservices}{6}
\bibcite{googletrendsmicroservices}{7}
\bibcite{gray2006conversation}{8}
\bibcite{hasselbring2002component}{9}
\bibcite{izrailevsky2016completingnetflix}{10}
\bibcite{Kautz:1994:BDS:176789.176805}{11}
\bibcite{landwehrhystrix}{12}
\bibcite{mackenzie2006reference}{13}
\bibcite{montesimicroservices}{14}
\bibcite{montesi2016circuit}{15}
\@writefile{toc}{\contentsline {section}{\numberline {5}Fazit}{7}}
\bibcite{netflixhystrixgithub}{16}
\bibcite{reese2011awsoutage}{17}
\bibcite{rhubart2015microservices}{18}
\bibcite{schroeder2014microservice}{19}
\bibcite{schulte1996service}{20}
\bibcite{stephens2015beginning}{21}
\bibcite{toth2015netflixarchitektur}{22}
\bibcite{netflixservices2013}{23}
\bibcite{wolff2015microservices}{24}
